[
  {
    "endpoint": "/contact",
    "status": 200,
    "recordCount": 1699,
    "sample": {
      "content": [
        {
          "id": "002b4bee-bd62-43f1-90ee-af8d535b2718",
          "name": "Scott McPhee",
          "preferredDisplayString": null,
          "barcode": null,
          "deleted": false,
          "shortName": null,
          "domainId": "contact",
          "className": "CONTACT",
          "shortNameOrName": "Scott McPhee"
        }
      ],
      "pageable": {
        "sort": {
          "unsorted": true,
          "sorted": false,
          "empty": true
        },
        "pageNumber": 0,
        "pageSize": 1,
        "offset": 0,
        "unpaged": false,
        "paged": true
      },
      "totalElements": 1699,
      "last": false,
      "totalPages": 1699,
      "sort": {
        "unsorted": true,
        "sorted": false,
        "empty": true
      },
      "first": true,
      "numberOfElements": 1,
      "size": 1,
      "number": 0,
      "empty": false
    }
  },
  {
    "endpoint": "/resource-type",
    "status": 200,
    "recordCount": "20+",
    "sample": [
      {
        "id": "4ab827cc-abef-11df-b8d5-00e08175e43e",
        "name": "Client",
        "namePlural": "Clients",
        "parentTypeId": null,
        "applicableClassName": "com.shoptick.contacts.domain.Contact",
        "availabilityMode": "permanent-asset",
        "applicableTowardsResourceTypeName": null,
        "discountEnabled": false,
        "taxable": false,
        "domainId": "resource-type"
      },
      {
        "id": "11ce76cc-aede-11df-b8d5-00e08175e43e",
        "name": "Employee",
        "namePlural": "Employees",
        "parentTypeId": null,
        "applicableClassName": "com.shoptick.contacts.domain.Contact",
        "availabilityMode": "staffing",
        "applicableTowardsResourceTypeName": null,
        "discountEnabled": false,
        "taxable": false,
        "domainId": "resource-type"
      },
      {
        "id": "3d32dccc-aede-11df-b8d5-00e08175e43e",
        "name": "Freelance Labor",
        "namePlural": "Freelance Labor",
        "parentTypeId": null,
        "applicableClassName": "com.shoptick.contacts.domain.Contact",
        "availabilityMode": "permanent-asset",
        "applicableTowardsResourceTypeName": null,
        "discountEnabled": false,
        "taxable": false,
        "domainId": "resource-type"
      },
      {
        "id": "5c6ffe6c-aede-11df-b8d5-00e08175e43e",
        "name": "Labor Provider",
        "namePlural": "Labor Providers",
        "parentTypeId": null,
        "applicableClassName": "com.shoptick.contacts.domain.Contact",
        "availabilityMode": "none",
        "applicableTowardsResourceTypeName": null,
        "discountEnabled": false,
        "taxable": false,
        "domainId": "resource-type"
      },
      {
        "id": "9d07f18c-aede-11df-b8d5-00e08175e43e",
        "name": "Vendor",
        "namePlural": "Vendors",
        "parentTypeId": null,
        "applicableClassName": "com.shoptick.contacts.domain.Contact",
        "availabilityMode": "none",
        "applicableTowardsResourceTypeName": null,
        "discountEnabled": false,
        "taxable": false,
        "domainId": "resource-type"
      },
      {
        "id": "a90f2acc-aede-11df-b8d5-00e08175e43e",
        "name": "Venue",
        "namePlural": "Venues",
        "parentTypeId": null,
        "applicableClassName": "com.shoptick.contacts.domain.Contact",
        "availabilityMode": "none",
        "applicableTowardsResourceTypeName": null,
        "discountEnabled": false,
        "taxable": false,
        "domainId": "resource-type"
      },
      {
        "id": "fb2cb3ac-aedd-11df-b8d5-00e08175e43e",
        "name": "Rental",
        "namePlural": "Rentals",
        "parentTypeId": null,
        "applicableClassName": "com.shoptick.inventory.domain.InventoryItem",
        "availabilityMode": "permanent-asset",
        "applicableTowardsResourceTypeName": null,
        "discountEnabled": true,
        "taxable": true,
        "domainId": "resource-type"
      },
      {
        "id": "a15fa91c-f0e3-11e0-a8de-00e08175e43e",
        "name": "Retail",
        "namePlural": "Retail",
        "parentTypeId": null,
        "applicableClassName": "com.shoptick.inventory.domain.InventoryItem",
        "availabilityMode": "outgoing",
        "applicableTowardsResourceTypeName": null,
        "discountEnabled": true,
        "taxable": true,
        "domainId": "resource-type"
      },
      {
        "id": "d587bfec-aede-11df-b8d5-00e08175e43e",
        "name": "Subrental",
        "namePlural": "Subrentals",
        "parentTypeId": null,
        "applicableClassName": "com.shoptick.inventory.domain.InventoryItem",
        "availabilityMode": "temporary-asset",
        "applicableTowardsResourceTypeName": "Rental",
        "discountEnabled": false,
        "taxable": false,
        "domainId": "resource-type"
      },
      {
        "id": "f2ad0a00-b5db-11e5-8d44-00259000d29a",
        "name": "Rental Backorder",
        "namePlural": "Rental Backorders",
        "parentTypeId": null,
        "applicableClassName": "com.shoptick.inventory.domain.InventoryItem",
        "availabilityMode": "incoming",
        "applicableTowardsResourceTypeName": "Rental",
        "discountEnabled": false,
        "taxable": false,
        "domainId": "resource-type"
      },
      {
        "id": "c3d25d0c-aede-11df-b8d5-00e08175e43e",
        "name": "Retail Backorder",
        "namePlural": "Retail Backorders",
        "parentTypeId": null,
        "applicableClassName": "com.shoptick.inventory.domain.InventoryItem",
        "availabilityMode": "incoming",
        "applicableTowardsResourceTypeName": "Retail",
        "discountEnabled": false,
        "taxable": false,
        "domainId": "resource-type"
      },
      {
        "id": "4a65288c-aede-11df-b8d5-00e08175e43e",
        "name": "Labor",
        "namePlural": "Labor",
        "parentTypeId": null,
        "applicableClassName": "com.shoptick.bizops.domain.ServiceOffering",
        "availabilityMode": "staffing",
        "applicableTowardsResourceTypeName": null,
        "discountEnabled": false,
        "taxable": false,
        "domainId": "resource-type"
      },
      {
        "id": "7c16692c-aede-11df-b8d5-00e08175e43e",
        "name": "Service",
        "namePlural": "Services",
        "parentTypeId": null,
        "applicableClassName": "com.shoptick.bizops.domain.ServiceOffering",
        "availabilityMode": "none",
        "applicableTowardsResourceTypeName": null,
        "discountEnabled": false,
        "taxable": true,
        "domainId": "resource-type"
      },
      {
        "id": "8aaab5ec-aede-11df-b8d5-00e08175e43e",
        "name": "Show Expense",
        "namePlural": "Show Expenses",
        "parentTypeId": null,
        "applicableClassName": "com.shoptick.bizops.domain.ServiceOffering",
        "availabilityMode": "none",
        "applicableTowardsResourceTypeName": null,
        "discountEnabled": false,
        "taxable": true,
        "domainId": "resource-type"
      },
      {
        "id": "936f474c-aede-11df-b8d5-00e08175e43e",
        "name": "Travel",
        "namePlural": "Travel",
        "parentTypeId": null,
        "applicableClassName": "com.shoptick.bizops.domain.ServiceOffering",
        "availabilityMode": "none",
        "applicableTowardsResourceTypeName": null,
        "discountEnabled": false,
        "taxable": true,
        "domainId": "resource-type"
      },
      {
        "id": "2cc58a4c-aede-11df-b8d5-00e08175e43e",
        "name": "Maintenance",
        "namePlural": "Maintenance",
        "parentTypeId": null,
        "applicableClassName": "com.shoptick.inventory.domain.MaintenanceProcedure",
        "availabilityMode": "none",
        "applicableTowardsResourceTypeName": null,
        "discountEnabled": false,
        "taxable": false,
        "domainId": "resource-type"
      },
      {
        "id": "7101cd4c-aede-11df-b8d5-00e08175e43e",
        "name": "Repair",
        "namePlural": "Repairs",
        "parentTypeId": null,
        "applicableClassName": "com.shoptick.inventory.domain.MaintenanceProcedure",
        "availabilityMode": "none",
        "applicableTowardsResourceTypeName": null,
        "discountEnabled": false,
        "taxable": false,
        "domainId": "resource-type"
      },
      {
        "id": "b613afcc-aede-11df-b8d5-00e08175e43e",
        "name": "Warehouse",
        "namePlural": "Warehouses",
        "parentTypeId": null,
        "applicableClassName": "com.shoptick.bizops.domain.BusinessLocation",
        "availabilityMode": "permanent-asset",
        "applicableTowardsResourceTypeName": null,
        "discountEnabled": false,
        "taxable": false,
        "domainId": "resource-type"
      },
      {
        "id": "5e399270-1fc1-11e7-a248-00259000d29a",
        "name": "Note",
        "namePlural": "Notes",
        "parentTypeId": null,
        "applicableClassName": "com.shoptick.bizops.domain.ServiceOffering",
        "availabilityMode": "none",
        "applicableTowardsResourceTypeName": null,
        "discountEnabled": false,
        "taxable": false,
        "domainId": "resource-type"
      },
      {
        "id": "48aaecf7-87f0-4dfa-8f99-cb49155dbbb0",
        "name": "Labor OT",
        "namePlural": "Labor OT",
        "parentTypeId": null,
        "applicableClassName": "com.shoptick.bizops.domain.ServiceOffering",
        "availabilityMode": "none",
        "applicableTowardsResourceTypeName": null,
        "discountEnabled": false,
        "taxable": true,
        "domainId": "resource-type"
      }
    ]
  },
  {
    "endpoint": "/payment-term",
    "recordCount": 13,
    "fields": [
      "id",
      "name",
      "createdByUserId",
      "createdDate",
      "lastEditUserId",
      "lastEditDate",
      "gracePeriod",
      "creditCard",
      "depositPercentage",
      "dueDatePeriod",
      "domainId"
    ],
    "sample": [
      {
        "id": "e0f56bf9-1295-4d97-bb59-2a95dcfed5ae",
        "name": "50DEP/50NET15",
        "createdByUserId": "59cb1863-03d6-43dd-8eb3-83909762eefd",
        "createdDate": "2023-03-03T21:49:30",
        "lastEditUserId": "59cb1863-03d6-43dd-8eb3-83909762eefd",
        "lastEditDate": "2023-03-03T21:49:30",
        "gracePeriod": 15,
        "creditCard": false,
        "depositPercentage": 0.5,
        "dueDatePeriod": 5,
        "domainId": "payment-term"
      },
      {
        "id": "ff3ab820-2610-11e7-a248-00259000d29a",
        "name": "50DEP/50NET30",
        "createdByUserId": "6c98c7ec-abeb-11df-b8d5-00e08175e43e",
        "createdDate": "2017-04-20T21:33:30",
        "lastEditUserId": "6c98c7ec-abeb-11df-b8d5-00e08175e43e",
        "lastEditDate": "2017-04-20T21:33:30",
        "gracePeriod": 30,
        "creditCard": false,
        "depositPercentage": 0.5,
        "dueDatePeriod": 5,
        "domainId": "payment-term"
      },
      {
        "id": "5c3bf53c-2733-4ff2-b270-dcb34c4ee052",
        "name": "50DEP/50NET45",
        "createdByUserId": "59cb1863-03d6-43dd-8eb3-83909762eefd",
        "createdDate": "2025-05-15T16:42:29",
        "lastEditUserId": "59cb1863-03d6-43dd-8eb3-83909762eefd",
        "lastEditDate": "2025-05-15T16:42:29",
        "gracePeriod": 45,
        "creditCard": false,
        "depositPercentage": 0.5,
        "dueDatePeriod": 5,
        "domainId": "payment-term"
      },
      {
        "id": "63a02ccc-aee1-11df-b8d5-00e08175e43e",
        "name": "AMEX",
        "createdByUserId": "6c98c7ec-abeb-11df-b8d5-00e08175e43e",
        "createdDate": "2010-08-23T12:08:10",
        "lastEditUserId": "6c98c7ec-abeb-11df-b8d5-00e08175e43e",
        "lastEditDate": "2010-08-23T12:08:10",
        "gracePeriod": 0,
        "creditCard": true,
        "depositPercentage": null,
        "dueDatePeriod": 0,
        "domainId": "payment-term"
      },
      {
        "id": "6bd0bb8c-aee1-11df-b8d5-00e08175e43e",
        "name": "COD",
        "createdByUserId": "6c98c7ec-abeb-11df-b8d5-00e08175e43e",
        "createdDate": "2010-08-23T12:08:24",
        "lastEditUserId": "6c98c7ec-abeb-11df-b8d5-00e08175e43e",
        "lastEditDate": "2010-08-23T12:08:24",
        "gracePeriod": 0,
        "creditCard": false,
        "depositPercentage": null,
        "dueDatePeriod": 0,
        "domainId": "payment-term"
      },
      {
        "id": "52c65436-d9a2-4c0c-a1a4-f1014a5d4c1a",
        "name": "Credit Card",
        "createdByUserId": "b850d18f-3a3e-4e9e-9eba-3125b1b5d69a",
        "createdDate": "2024-04-12T19:59:01",
        "lastEditUserId": "b850d18f-3a3e-4e9e-9eba-3125b1b5d69a",
        "lastEditDate": "2024-04-12T19:59:01",
        "gracePeriod": 0,
        "creditCard": false,
        "depositPercentage": 0,
        "dueDatePeriod": 0,
        "domainId": "payment-term"
      },
      {
        "id": "c4c8ab6d-15c1-4e17-aff2-571b5375f2c3",
        "name": "Due on receipt",
        "createdByUserId": "c4c65a48-a49f-4c96-a887-a88ef194f899",
        "createdDate": "2022-08-30T08:03:47",
        "lastEditUserId": "c4c65a48-a49f-4c96-a887-a88ef194f899",
        "lastEditDate": "2022-08-30T08:03:47",
        "gracePeriod": 0,
        "creditCard": false,
        "depositPercentage": 0,
        "dueDatePeriod": 0,
        "domainId": "payment-term"
      },
      {
        "id": "25139a0c-aee1-11df-b8d5-00e08175e43e",
        "name": "In Advance",
        "createdByUserId": "6c98c7ec-abeb-11df-b8d5-00e08175e43e",
        "createdDate": "2010-08-23T12:06:25",
        "lastEditUserId": "6c98c7ec-abeb-11df-b8d5-00e08175e43e",
        "lastEditDate": "2010-08-23T12:06:25",
        "gracePeriod": 0,
        "creditCard": false,
        "depositPercentage": null,
        "dueDatePeriod": 0,
        "domainId": "payment-term"
      },
      {
        "id": "4bb6594c-aee1-11df-b8d5-00e08175e43e",
        "name": "Master Card",
        "createdByUserId": "6c98c7ec-abeb-11df-b8d5-00e08175e43e",
        "createdDate": "2010-08-23T12:07:30",
        "lastEditUserId": "6c98c7ec-abeb-11df-b8d5-00e08175e43e",
        "lastEditDate": "2010-08-23T12:07:30",
        "gracePeriod": 0,
        "creditCard": true,
        "depositPercentage": null,
        "dueDatePeriod": 0,
        "domainId": "payment-term"
      },
      {
        "id": "345760ac-aee1-11df-b8d5-00e08175e43e",
        "name": "Net 10",
        "createdByUserId": "6c98c7ec-abeb-11df-b8d5-00e08175e43e",
        "createdDate": "2010-08-23T12:06:51",
        "lastEditUserId": "6c98c7ec-abeb-11df-b8d5-00e08175e43e",
        "lastEditDate": "2010-08-23T12:06:51",
        "gracePeriod": 10,
        "creditCard": false,
        "depositPercentage": null,
        "dueDatePeriod": 0,
        "domainId": "payment-term"
      },
      {
        "id": "bd84cc78-0272-4394-aaeb-7e78ab5d440f",
        "name": "Net 15",
        "createdByUserId": "b850d18f-3a3e-4e9e-9eba-3125b1b5d69a",
        "createdDate": "2023-09-28T02:02:38",
        "lastEditUserId": "b850d18f-3a3e-4e9e-9eba-3125b1b5d69a",
        "lastEditDate": "2023-09-28T02:02:48",
        "gracePeriod": 15,
        "creditCard": false,
        "depositPercentage": 0,
        "dueDatePeriod": 0,
        "domainId": "payment-term"
      },
      {
        "id": "3db91c6c-aee1-11df-b8d5-00e08175e43e",
        "name": "Net 30",
        "createdByUserId": "6c98c7ec-abeb-11df-b8d5-00e08175e43e",
        "createdDate": "2010-08-23T12:07:07",
        "lastEditUserId": "6c98c7ec-abeb-11df-b8d5-00e08175e43e",
        "lastEditDate": "2010-08-23T12:07:07",
        "gracePeriod": 30,
        "creditCard": false,
        "depositPercentage": null,
        "dueDatePeriod": 0,
        "domainId": "payment-term"
      },
      {
        "id": "5b15972c-aee1-11df-b8d5-00e08175e43e",
        "name": "Visa",
        "createdByUserId": "6c98c7ec-abeb-11df-b8d5-00e08175e43e",
        "createdDate": "2010-08-23T12:07:56",
        "lastEditUserId": "6c98c7ec-abeb-11df-b8d5-00e08175e43e",
        "lastEditDate": "2010-08-23T12:07:56",
        "gracePeriod": 0,
        "creditCard": true,
        "depositPercentage": null,
        "dueDatePeriod": 0,
        "domainId": "payment-term"
      }
    ]
  }
]